Song name,x0,x1
BWFL,1.27340686,0.19961534
COTI,1.59971058,0.43478245
Cuckoo,-0.11970416,0.44417763
ECLW,1.92953312,0.15358178
EUWR,1.38601482,0.55613798
Grive Mus.,-0.38416281,0.65974981
JBWA,1.26919532,-0.73073918
JPRO,0.51146698,0.46647882
LECU,0.40347269,-0.58922154
Merl Noir,-0.30330855,0.16700141
Rossignol,-0.10829256,0.70695162
Rouge Gorge,0.07094564,0.01521181